test_runs/single_mode_mult_8x8/run002/k4_frac_N8_tileable_reset_softadder_register_scan_chain_dsp8_nonLR_caravel_io_skywater130nm/mac_2/MIN_ROUTE_CHAN_WIDTH/mac_2_formal.vcd
$date
	Wed May 22 20:16:05 2024
$end
$version
	Icarus Verilog
$end
$timescale
	1ps
$end
$scope module mac_2_top_formal_verification_random_tb $end
$var wire 1 ! out_1__gfpga $end
$var wire 1 " out_1__bench $end
$var wire 1 # out_0__gfpga $end
$var wire 1 $ out_0__bench $end
$var reg 1 % a_0_ $end
$var reg 1 & a_1_ $end
$var reg 1 ' b_0_ $end
$var reg 1 ( b_1_ $end
$var reg 1 ) c_0_ $end
$var reg 1 * c_1_ $end
$var reg 1 + clk $end
$var reg 1 , out_0__flag $end
$var reg 1 - out_1__flag $end
$var reg 1 . sim_start $end
$var integer 32 / nb_error [31:0] $end
$upscope $end
$enddefinitions $end
#0
$dumpvars
b0 /
0.
0-
0,
0+
1*
0)
0(
0'
0&
1%
0$
0#
1"
1!
$end
#1000
1+
#2000
0!
0"
1(
1&
0+
#3000
1+
#4000
0!
0#
0"
1)
1'
0+
#5000
1+
#6000
1#
0!
1$
0*
0(
0'
0%
0+
#7000
1+
#8000
1!
0#
1"
0$
1*
0)
1(
0&
0+
#9000
1+
#10000
0!
1#
0"
1$
0*
1)
1'
0+
#11000
1+
#12000
0!
1*
0(
1&
0+
#13000
1+
#14000
1!
1"
0*
1(
0'
1%
0+
#15000
1+
#16000
1!
0#
0$
1*
0)
0(
0&
0%
0+
#17000
1+
#18000
0!
1#
1$
0"
1)
1(
1'
1&
0+
