workshop/lab3/run003/k6_frac_N10_40nm/mac_2/MIN_ROUTE_CHAN_WIDTH/mac_2_formal.vcd
$date
	Sun May 12 14:33:29 2024
$end
$version
	Icarus Verilog
$end
$timescale
	1ps
$end
$scope module mac_2_autocheck_top_tb $end
$var wire 1 ! __config_all_done__ $end
$var wire 1 " __op_clock__ $end
$var wire 1 # __prog_clock__ $end
$var wire 1 $ clk $end
$var wire 32 % gfpga_pad_GPIO_PAD [0:31] $end
$var wire 1 & pReset $end
$var wire 1 ' prog_clk $end
$var wire 1 ( reset $end
$var wire 1 ) set $end
$var wire 1 * out_3__fpga $end
$var wire 1 + out_3__benchmark $end
$var wire 1 , out_2__fpga $end
$var wire 1 - out_2__benchmark $end
$var wire 1 . out_1__fpga $end
$var wire 1 / out_1__benchmark $end
$var wire 1 0 out_0__fpga $end
$var wire 1 1 out_0__benchmark $end
$var wire 1 2 ccff_tail $end
$var reg 1 3 __config_done__ $end
$var reg 1 4 __greset__ $end
$var reg 1 5 __gset__ $end
$var reg 1 6 __op_clock___reg__ $end
$var reg 1 7 __prog_clock___reg__ $end
$var reg 1 8 __prog_reset__ $end
$var reg 1 9 __prog_set_ $end
$var reg 1 : a_0__shared_input $end
$var reg 1 ; a_1__shared_input $end
$var reg 1 < b_0__shared_input $end
$var reg 1 = b_1__shared_input $end
$var reg 13 > bit_index [12:0] $end
$var reg 1 ? c_0__shared_input $end
$var reg 1 @ c_1__shared_input $end
$var reg 1 A ccff_head $end
$var reg 13 B ibit [12:0] $end
$var reg 1 C out_0__flag $end
$var reg 1 D out_1__flag $end
$var reg 1 E out_2__flag $end
$var reg 1 F out_3__flag $end
$var reg 1 G sim_start $end
$var reg 1 H skip_bits $end
$var integer 32 I nb_error [31:0] $end
$upscope $end
$enddefinitions $end
#0
$dumpvars
b1 I
0H
1G
0F
0E
0D
0C
b100011110011 B
0A
0@
1?
b0 >
1=
1<
1;
0:
19
18
07
06
05
14
03
02
11
10
1/
0.
1-
1,
0+
0*
0)
1(
0'
1&
b10x0x1000x00xxx00x1001xx0x000xxx %
0$
0#
0"
0!
$end
#1667
17
#3333
1'
1#
09
0&
08
#3334
b1 >
0'
0#
07
#5001
1'
1#
17
#6668
b10 >
0'
0#
07
#8335
1'
1#
17
#10002
b11 >
0'
0#
07
#11669
1'
1#
17
#13336
b100 >
0'
0#
07
#15003
1'
1#
17
#16670
b101 >
0'
0#
07
#18337
1'
1#
17
#20004
b110 >
0'
0#
07
#21671
1'
1#
17
#23338
b111 >
0'
0#
07
#25005
1'
1#
17
#26672
b1000 >
1A
0'
0#
07
#28339
1'
1#
17
#30006
b1001 >
0A
0'
0#
07
#31673
b10x0x1000x00xxx0011001xx0x000xxx %
1'
1#
17
#33340
b1010 >
0'
0#
07
#35007
z0
b10x0x1000x00xxx00xz001xx0x000xxx %
1'
1#
17
#36674
b1011 >
0'
0#
07
#38341
10
b10x0x1000x00xxx00x1001xx0x000xxx %
1'
1#
17
#40008
b1100 >
0'
0#
07
#41675
1'
1#
17
#43342
b1101 >
0'
0#
07
#45009
1'
1#
17
#46676
b1110 >
1A
0'
0#
07
#48343
b10x0x1000x00xxx00x10011x0x000xxx %
1'
1#
17
#50010
b1111 >
0A
0'
0#
07
#51677
b10x0x1000x00xxx0011001x00x000xxx %
1'
1#
17
#53344
b10000 >
0'
0#
07
#55011
z0
b10x0x1000x00xxx00xz001xx0x000xxx %
1'
1#
17
#56678
b10001 >
0'
0#
07
#58345
10
b10x0x1000000xxx00x1001xx0x000xxx %
1'
1#
17
#60012
b10010 >
0'
0#
07
#61679
b10x0x1000x00xxx00x1001xx0x000xxx %
1'
1#
17
#63346
b10011 >
0'
0#
07
#65013
1'
1#
17
#66680
b10100 >
0'
0#
07
#68347
b10x0x1000x000xx00x10011x0x000xxx %
1'
1#
17
#70014
b10101 >
0'
0#
07
#71681
b10x0x1000x00x0x00x1001x00x000xxx %
1'
1#
17
#73348
b10110 >
1A
0'
0#
07
#75015
b10x0x1000x00xx000x1001xx0x000xxx %
1'
1#
17
#76682
b10111 >
0A
0'
0#
07
#78349
b10x0x1000000xxx0011001xx0x000xxx %
1'
1#
17
#80016
b11000 >
0'
0#
07
#81683
z0
b10x0x1000x00xxx00xz001xx0x000xxx %
1'
1#
17
#83350
b11001 >
0'
0#
07
#85017
10
b10x0x1000x00xxx00x1001xx0x000xxx %
1'
1#
17
#86684
b11010 >
0'
0#
07
#88351
b10x0x1000x000xx00x1001xx0x000xxx %
1'
1#
17
#90018
b11011 >
1A
0'
0#
07
#91685
b10x0x1000x00x0x00x1001xx0x000xxx %
1'
1#
17
#93352
b11100 >
0A
0'
0#
07
#95019
b10x0x1000x00xx000110011x0x000xxx %
1'
1#
17
#96686
b11101 >
0'
0#
07
#98353
z0
b10x0x1000x00xxx00xz001x00x000xxx %
1'
1#
17
#100020
b11110 >
0'
0#
07
#101687
10
b10x0x1000x00xxx00x1001xx0x000xxx %
1'
1#
17
#103354
b11111 >
0'
0#
07
#105021
b10x0x1000000xxx00x1001xx0x000xxx %
1'
1#
17
#106688
b100000 >
0'
0#
07
#108355
b10x0x1000x00xxx00x1001xx0x000xxx %
1'
1#
17
#110022
b100001 >
0'
0#
07
#111689
b10x0x1000x00xxx00x10011x0x000xxx %
1'
1#
17
#113356
b100010 >
0'
0#
07
#115023
b10x0x1000x000xx00x1001x00x000xxx %
1'
1#
17
#116690
b100011 >
0'
0#
07
#118357
b10x0x1000x00x0x00x1001xx0x000xxx %
1'
1#
17
#120024
b100100 >
1A
0'
0#
07
#121691
b10x0x1000000xx000x1001xx0x000xxx %
1'
1#
17
#123358
b100101 >
0A
0'
0#
07
#125025
b10x0x1000x00xxx0011001xx0x000xxx %
1'
1#
17
#126692
b100110 >
0'
0#
07
#128359
z0
b10x0x1000x00xxx00xz001xx0x000xxx %
1'
1#
17
#130026
b100111 >
0'
0#
07
#131693
10
b10x0x1000x000xx00x1001xx0x000xxx %
1'
1#
17
#133360
b101000 >
0'
0#
07
#135027
b10x0x1000x00x0x00x1001xx0x000xxx %
1'
1#
17
#136694
b101001 >
0'
0#
07
#138361
b10x0x1000x00xx000x1001xx0x000xxx %
1'
1#
17
#140028
b101010 >
0'
0#
07
#141695
b10x0x1000x00xxx00x10011x0x000xxx %
1'
1#
17
#143362
b101011 >
0'
0#
07
#145029
b10x0x1000x00xxx00x1001x00x000xxx %
1'
1#
17
#146696
b101100 >
0'
0#
07
#148363
b10x0x1000x00xxx00x1001xx0x000xxx %
1'
1#
17
#150030
b101101 >
0'
0#
07
#151697
b10x0x1000000xxx00x1001xx0x000xxx %
1'
1#
17
#153364
b101110 >
1A
0'
0#
07
#155031
b10x0x1000x00xxx00x1001xx0x000xxx %
1'
1#
17
#156698
b101111 >
0A
0'
0#
07
#158365
b10x0x1000x00xxx0011001xx0x000xxx %
1'
1#
17
#160032
b110000 >
0'
0#
07
#161699
z0
b10x0x1000x000xx00xz001xx0x000xxx %
1'
1#
17
#163366
b110001 >
0'
0#
07
#165033
10
b10x0x1000x00x0x00x1001xx0x000xxx %
1'
1#
17
#166700
b110010 >
0'
0#
07
#168367
b10x0x1000x00xx000x1001xx0x000xxx %
1'
1#
17
#170034
b110011 >
0'
0#
07
#171701
b10x0x1000x00xxx00x1001xx0x000xxx %
1'
1#
17
#173368
b110100 >
0'
0#
07
#175035
b10x0x1000x00xxx00x10011x0x000xxx %
1'
1#
17
#176702
b110101 >
0'
0#
07
#178369
b10x0x1000x00xxx00x1001x00x000xxx %
1'
1#
17
#180036
b110110 >
0'
0#
07
#181703
b10x0x1000x00xxx00x1001xx0x000xxx %
1'
1#
17
#183370
b110111 >
0'
0#
07
#185037
b10x0x1000000xxx00x1001xx0x000xxx %
1'
1#
17
#186704
b111000 >
1A
0'
0#
07
#188371
b10x0x1000x00xxx00x1001xx0x000xxx %
1'
1#
17
#190038
b111001 >
0A
0'
0#
07
#191705
b10x0x1000x00xxx0011001xx0x000xxx %
1'
1#
17
#193372
b111010 >
1A
0'
0#
07
#195039
z0
b10x0x1000x000xx00xz001xx0x000xxx %
1'
1#
17
#196706
b111011 >
0A
0'
0#
07
#198373
10
b10x0x1000x00x0x0011001xx0x000xxx %
1'
1#
17
#200040
b111100 >
0'
0#
07
#201707
z0
b10x0x1000x00xx000xz001xx0x000xxx %
1'
1#
17
#203374
b111101 >
0'
0#
07
#205041
10
b10x0x1000x00xxx00x1001xx0x000xxx %
1'
1#
17
#206708
b111110 >
0'
0#
07
#208375
b10x0x1000x00xxx00x10011x0x000xxx %
1'
1#
17
#210042
b111111 >
0'
0#
07
#211709
b10x0x1000x00xxx00x1001x00x000xxx %
1'
1#
17
#213376
b1000000 >
0'
0#
07
#215043
b10x0x1000x00xxx00x10011x0x000xxx %
1'
1#
17
#216710
b1000001 >
0'
0#
07
#218377
b10x0x1000000xxx00x1001x00x000xxx %
1'
1#
17
#220044
b1000010 >
0'
0#
07
#221711
b10x0x1000x00xxx00x1001xx0x000xxx %
1'
1#
17
#223378
b1000011 >
0'
0#
07
#225045
b10x0x1000000xxx00x1001xx0x000xxx %
1'
1#
17
#226712
b1000100 >
0'
0#
07
#228379
b10x0x1000x000xx00x1001xx0x000xxx %
1'
1#
17
#230046
b1000101 >
0'
0#
07
#231713
b10x0x1000x00x0x00x1001xx0x000xxx %
1'
1#
17
#233380
b1000110 >
0'
0#
07
#235047
b10x0x1000x000x000x1001xx0x000xxx %
1'
1#
17
#236714
b1000111 >
1A
0'
0#
07
#238381
1,
b10x0x1000x00x0x00x1001xx0x000xxx %
1'
1#
17
#240048
b1001000 >
0A
0'
0#
07
#241715
0,
b0x0x1000x00xx00011001xx0x000xxx %
1'
1#
17
#243382
b1001001 >
0'
0#
07
#245049
z0
b0x0x1000x00xxx00xz001xx0x000xxx %
1'
1#
17
#246716
b1001010 >
0'
0#
07
#248383
10
b0x0x1000x00xxx00x1001xx0x000xxx %
1'
1#
17
#250050
b1001011 >
0'
0#
07
#251717
1'
1#
17
#253384
b1001100 >
1A
0'
0#
07
#255051
1'
1#
17
#256718
b1001101 >
0A
0'
0#
07
#258385
0.
0,
b0x0x1000x00xxx00110011x0x000xxx %
1'
1#
17
#260052
b1001110 >
0'
0#
07
#261719
z0
b0x0x1000x00xxx00xz001x00x000xxx %
1'
1#
17
#263386
b1001111 >
0'
0#
07
#265053
10
b0x0x1000x00xxx00x1001xx0x000xxx %
1'
1#
17
#266720
b1010000 >
0'
0#
07
#268387
1.
0,
b1x0x1000000xxx00x1001xx0x000xxx %
1'
1#
17
#270054
b1010001 >
0'
0#
07
#271721
b1x0x1000x00xxx00x1001xx0x000xxx %
1'
1#
17
#273388
b1010010 >
0'
0#
07
#275055
b1x0x1000x00xxx00x10011x0x000xxx %
1'
1#
17
#276722
b1010011 >
0'
0#
07
#278389
0.
b0x1000x000xx00x1001x00x000xxx %
1'
1#
17
#280056
b1010100 >
0'
0#
07
#281723
b0x1000x00x0x00x1001xx0x000xxx %
1'
1#
17
#283390
b1010101 >
0'
0#
07
#285057
0,
b0x1000000xx000x1001xx0x000xxx %
1'
1#
17
#286724
b1010110 >
0'
0#
07
#288391
b0x1000x00xxx00x1001xx0x000xxx %
1'
1#
17
#290058
b1010111 >
0'
0#
07
#291725
1'
1#
17
#293392
b1011000 >
1A
0'
0#
07
#295059
1,
b1000x1000x000xx00x1001xx0x000xxx %
1'
1#
17
#296726
b1011001 >
0A
0'
0#
07
#298393
b1000x1000x00x0x0011001xx0x000xxx %
1'
1#
17
#300060
b1011010 >
0'
0#
07
#301727
0,
z0
b0x1000x00xx000xz001xx0x000xxx %
1'
1#
17
#303394
b1011011 >
0'
0#
07
#305061
10
b0x1000x00xxx00x1001xx0x000xxx %
1'
1#
17
#306728
b1011100 >
1A
0'
0#
07
#308395
b0xxx1000x00xxx00x1001xx0x000xxx %
1'
1#
17
#310062
b1011101 >
0A
0'
0#
07
#311729
1,
b10xxx1000x00xxx0011001xx0x000xxx %
1'
1#
17
#313396
b1011110 >
0'
0#
07
#315063
1.
z0
b11xxx1000x00xxx00xz0011x0x000xxx %
1'
1#
17
#316730
b1011111 >
0'
0#
07
#318397
10
b11xx01000x00xxx00x1001x00x000xxx %
1'
1#
17
#320064
b1100000 >
0'
0#
07
#321731
0.
b10x001000x00xxx00x1001xx0x000xxx %
1'
1#
17
#323398
b1100001 >
0'
0#
07
#325065
b10x001000000xxx00x1001xx0x000xxx %
1'
1#
17
#326732
b1100010 >
0'
0#
07
#328399
b100x01000x00xxx00x10011x0x000xxx %
1'
1#
17
#330066
b1100011 >
0'
0#
07
#331733
1,
b100x01000x00xxx00x1001x00x000xxx %
1'
1#
17
#333400
b1100100 >
0'
0#
07
#335067
0,
b0x01000x000xx00x1001xx0x000xxx %
1'
1#
17
#336734
b1100101 >
0'
0#
07
#338401
b0x01000000x0x00x1001xx0x000xxx %
1'
1#
17
#340068
b1100110 >
0'
0#
07
#341735
1,
b100x0x000x00xx000x1001xx0x000xxx %
1'
1#
17
#343402
b1100111 >
0'
0#
07
#345069
b100x0x000x00xxx00x1001xx0x000xxx %
1'
1#
17
#346736
b1101000 >
1A
0'
0#
07
#348403
b1000xx000x000xx00x1001xx0x000xxx %
1'
1#
17
#350070
b1101001 >
0A
0'
0#
07
#351737
b1000xx000x00x0x0011001xx0x000xxx %
1'
1#
17
#353404
b1101010 >
0'
0#
07
#355071
0.
z0
b100xxx000x00xx000xz001xx0x000xxx %
1'
1#
17
#356738
b1101011 >
0'
0#
07
#358405
10
b100xxx000x00xxx00x1001xx0x000xxx %
1'
1#
17
#360072
b1101100 >
0'
0#
07
#361739
0.
b100xxx000x00xxx00x1001xx0x000xxx %
1'
1#
17
#363406
b1101101 >
0'
0#
07
#365073
1,
b10000x000x00xxx00x1001xx0x000xxx %
1'
1#
17
#366740
b1101110 >
1A
0'
0#
07
#368407
0,
b1x00x00xxx00x10011x0x000xxx %
1'
1#
17
#370074
b1101111 >
0A
0'
0#
07
#371741
b0x001x00x00xxx0011001x00x000xxx %
1'
1#
17
#373408
b1110000 >
0'
0#
07
#375075
1,
z0
b1000x1x00x00xxx00xz001xx0x000xxx %
1'
1#
17
#376742
b1110001 >
0'
0#
07
#378409
1*
10
b1000x1010000xxx00x1001xx0x000xxx %
1'
1#
17
#380076
b1110010 >
0'
0#
07
#381743
0*
b10x0x1000x00xxx00x1001xx0x000xxx %
1'
1#
17
#383410
b1110011 >
0'
0#
07
#385077
1.
b11x00x000x00xxx00x1001xx0x000xxx %
1'
1#
17
#386744
b1110100 >
0'
0#
07
#388411
0.
0*
b10x00x000x000xx00x10011x0x000xxx %
1'
1#
17
#390078
b1110101 >
0'
0#
07
#391745
b10xxxx000x00x0x00x1001x00x000xxx %
1'
1#
17
#393412
b1110110 >
0'
0#
07
#395079
1.
b11x0xx000x00xx000x1001xx0x000xxx %
1'
1#
17
#396746
b1110111 >
1A
0'
0#
07
#398413
1*
0,
b1x0xx010000xxx00x1001xx0x000xxx %
1'
1#
17
#400080
b1111000 >
0A
0'
0#
07
#401747
0*
b1x0x1000x00xxx0011001xx0x000xxx %
1'
1#
17
#403414
b1111001 >
0'
0#
07
#405081
z0
b1x0xxx00x00xxx00xz001xx0x000xxx %
1'
1#
17
#406748
b1111010 >
0'
0#
07
#408415
1*
10
b100xx010x000xx00x1001xx0x000xxx %
1'
1#
17
#410082
b1111011 >
0'
0#
07
#411749
b1000x010x00x0x00x1001xx0x000xxx %
1'
1#
17
#413416
b1111100 >
1A
0'
0#
07
#415083
1,
b11000xx10x00xx000x1001xx0x000xxx %
1'
1#
17
#416750
b1111101 >
0A
0'
0#
07
#418417
0.
b10000xx10x00xxx00110011x0x000xxx %
1'
1#
17
#420084
b1111110 >
0'
0#
07
#421751
0.
z0
b10000xx10x00xxx00xz001x00x000xxx %
1'
1#
17
#423418
b1111111 >
0'
0#
07
#425085
1*
10
b100x0x010x00xxx00x1001xx0x000xxx %
1'
1#
17
#426752
b10000000 >
0'
0#
07
#428419
0*
b10000x000000xxx00x1001xx0x000xxx %
1'
1#
17
#430086
b10000001 >
0'
0#
07
#431753
b100001000x00xxx00x1001xx0x000xxx %
1'
1#
17
#433420
b10000010 >
0'
0#
07
#435087
1*
b100x0x010x00xxx00x10011x0x000xxx %
1'
1#
17
#436754
b10000011 >
0'
0#
07
#438421
b100x0x010x000xx00x1001x00x000xxx %
1'
1#
17
#440088
b10000100 >
0'
0#
07
#441755
0*
b100x0x000x00x0x00x1001xx0x000xxx %
1'
1#
17
#443422
b10000101 >
0'
0#
07
#445089
b100xxx000000xx000x1001xx0x000xxx %
1'
1#
17
#446756
b10000110 >
0'
0#
07
#448423
1,
b100x0x000x00xxx00x1001xx0x000xxx %
1'
1#
17
#450090
b10000111 >
0'
0#
07
#451757
1,
1*
b100x0x010x00xxx00x1001xx0x000xxx %
1'
1#
17
#453424
b10001000 >
1A
0'
0#
07
#455091
0,
b0xx0x010x000xx00x1001xx0x000xxx %
1'
1#
17
#456758
b10001001 >
0A
0'
0#
07
#458425
0,
b0x00x010x00x0x0011001xx0x000xxx %
1'
1#
17
#460092
b10001010 >
0'
0#
07
#461759
z0
b0x00xx10x00xx000xz001xx0x000xxx %
1'
1#
17
#463426
b10001011 >
0'
0#
07
#465093
10
b0x00xx10x00xxx00x1001xx0x000xxx %
1'
1#
17
#466760
b10001100 >
1A
0'
0#
07
#468427
1.
0,
b1x00xx10x00xxx00x1001xx0x000xxx %
1'
1#
17
#470094
b10001101 >
0A
0'
0#
07
#471761
1.
1*
b1x00xx10x00xxx0011001xx0x000xxx %
1'
1#
17
#473428
b10001110 >
0'
0#
07
#475095
0.
0,
0*
z0
b0xx01x00x00xxx00xz0011x0x000xxx %
1'
1#
17
#476762
b10001111 >
0'
0#
07
#478429
1.
10
b1xx01x00x00xxx00x1001x00x000xxx %
1'
1#
17
#480096
b10010000 >
0'
0#
07
#481763
0*
b1xx01x00x00xxx00x1001xx0x000xxx %
1'
1#
17
#483430
b10010001 >
0'
0#
07
#485097
1.
b1xx01x00000xxx00x1001xx0x000xxx %
1'
1#
17
#486764
b10010010 >
0'
0#
07
#488431
0.
b0x01000x00xxx00x10011x0x000xxx %
1'
1#
17
#490098
b10010011 >
0'
0#
07
#491765
b0x01000x00xxx00x1001x00x000xxx %
1'
1#
17
#493432
b10010100 >
1A
0'
0#
07
#495099
0.
b0xx1000x000xx00x1001xx0x000xxx %
1'
1#
17
#496766
b10010101 >
0A
0'
0#
07
#498433
b0xxx000000x0x0011001xx0x000xxx %
1'
1#
17
#500100
b10010110 >
0'
0#
07
#501767
z0
b0xxx000x00xx000xz001xx0x000xxx %
1'
1#
17
#503434
b10010111 >
0'
0#
07
#505101
0,
1*
10
b0xxxx010x00xxx00x1001xx0x000xxx %
1'
1#
17
#506768
b10011000 >
0'
0#
07
#508435
0,
0*
b0xx000x000xx00x1001xx0x000xxx %
1'
1#
17
#510102
b10011001 >
0'
0#
07
#511769
b0xx000x00x0x00x1001xx0x000xxx %
1'
1#
17
#513436
b10011010 >
0'
0#
07
#515103
1,
b1000xx000x00xx000x10011x0x000xxx %
1'
1#
17
#516770
b10011011 >
0'
0#
07
#518437
0,
b0xxxx00x00xxx00x1001x00x000xxx %
1'
1#
17
#520104
b10011100 >
0'
0#
07
#521771
b0xxx000x00xxx00x1001xx0x000xxx %
1'
1#
17
#523438
b10011101 >
0'
0#
07
#525105
1.
b10xxx000000xxx00x1001xx0x000xxx %
1'
1#
17
#526772
b10011110 >
1A
0'
0#
07
#528439
0.
1,
b10000x000x00xxx00x1001xx0x000xxx %
1'
1#
17
#530106
b10011111 >
0A
0'
0#
07
#531773
b1000xx000x00xxx0011001xx0x000xxx %
1'
1#
17
#533440
b10100000 >
0'
0#
07
#535107
1.
z0
b110x0x000x000xx00xz001xx0x000xxx %
1'
1#
17
#536774
b10100001 >
0'
0#
07
#538441
1.
10
b110x0x000x00x0x00x1001xx0x000xxx %
1'
1#
17
#540108
b10100010 >
0'
0#
07
#541775
0*
0.
b100x0x000x00xx000x1001xx0x000xxx %
1'
1#
17
#543442
b10100011 >
0'
0#
07
#545109
b100x0x000x00xxx00x1001xx0x000xxx %
1'
1#
17
#546776
b10100100 >
0'
0#
07
#548443
b100x01000x00xxx00x10011x0x000xxx %
1'
1#
17
#550110
b10100101 >
0'
0#
07
#551777
b100x0x000x00xxx00x1001x00x000xxx %
1'
1#
17
#553444
b10100110 >
1A
0'
0#
07
#555111
b100xxx000x00xxx00x1001xx0x000xxx %
1'
1#
17
#556778
b10100111 >
0A
0'
0#
07
#558445
0,
b0xx1000000xxx0011001xx0x000xxx %
1'
1#
17
#560112
b10101000 >
0'
0#
07
#561779
z0
b0xx1000x00xxx00xz001xx0x000xxx %
1'
1#
17
#563446
b10101001 >
0'
0#
07
#565113
10
b0x1000x00xxx00x1001xx0x000xxx %
1'
1#
17
#566780
b10101010 >
0'
0#
07
#568447
z,
bz0x0xxx00x000xx00x1001xx0x000xxx %
1'
1#
17
#570114
b10101011 >
1A
0'
0#
07
#571781
z.
1,
b1zx0xx000x00x0x00x1001xx0x000xxx %
1'
1#
17
#573448
b10101100 >
0A
0'
0#
07
#575115
0.
b1000xx000x00xx000110011x0x000xxx %
1'
1#
17
#576782
b10101101 >
0'
0#
07
#578449
1,
z0
b10x0xxx00x00xxx00xz001x00x000xxx %
1'
1#
17
#580116
b10101110 >
0'
0#
07
#581783
0.
0,
10
b0x00xx00x00xxx00x1001xx0x000xxx %
1'
1#
17
#583450
b10101111 >
0'
0#
07
#585117
b0x0x1000000xxx00x1001xx0x000xxx %
1'
1#
17
#586784
b10110000 >
0'
0#
07
#588451
1*
z,
bz0xx0x010x00xxx00x1001xx0x000xxx %
1'
1#
17
#590118
b10110001 >
0'
0#
07
#591785
z.
0,
z*
b0zxx0x0z0x00xxx00x10011x0x000xxx %
1'
1#
17
#593452
b10110010 >
0'
0#
07
#595119
0.
0*
b0xxxx00x000xx00x1001x00x000xxx %
1'
1#
17
#596786
b10110011 >
0'
0#
07
#598453
1.
1*
b1000xx10x00x0x00x1001xx0x000xxx %
1'
1#
17
#600120
b10110100 >
0'
0#
07
#601787
0.
b0x0xx10000xx000x1001xx0x000xxx %
1'
1#
17
#603454
b10110101 >
0'
0#
07
#605121
0*
b0x01x00x00xxx00x1001xx0x000xxx %
1'
1#
17
#606788
b10110110 >
0'
0#
07
#608455
1.
b1xxxx000x00xxx00x1001xx0x000xxx %
1'
1#
17
#610122
b10110111 >
0'
0#
07
#611789
1,
z*
b11xxxxxz0x000xx00x1001xx0x000xxx %
1'
1#
17
#613456
b10111000 >
1A
0'
0#
07
#615123
z,
1*
bz1xxx1x10x00x0x00x1001xx0x000xxx %
1'
1#
17
#616790
b10111001 >
0A
0'
0#
07
#618457
z.
0,
b0z00xxx10x00xx00011001xx0x000xxx %
1'
1#
17
#620124
b10111010 >
1A
0'
0#
07
#621791
z0
1.
b100xxx10x00xxx00xz001xx0x000xxx %
1'
1#
17
#623458
b10111011 >
0A
0'
0#
07
#625125
1,
10
b1100xx010x00xxx0011001xx0x000xxx %
1'
1#
17
#626792
b10111100 >
0'
0#
07
#628459
0,
1.
z0
b1x001010x00xxx00xz001xx0x000xxx %
1'
1#
17
#630126
b10111101 >
0'
0#
07
#631793
1.
10
z,
bz1x0x1010x00xxx00x1001xx0x000xxx %
1'
1#
17
#633460
b10111110 >
0'
0#
07
#635127
z.
0,
b0zx0x1010x00xxx00x10011x0x000xxx %
1'
1#
17
#636794
b10111111 >
0'
0#
07
#638461
1.
z*
b10001xz0x00xxx00x1001x00x000xxx %
1'
1#
17
#640128
b11000000 >
0'
0#
07
#641795
1*
b1x001010x00xxx00x10011x0x000xxx %
1'
1#
17
#643462
b11000001 >
1A
0'
0#
07
#645129
0.
1*
b0x001010000xxx00x1001x00x000xxx %
1'
1#
17
#646796
b11000010 >
0A
0'
0#
07
#648463
0*
b0x001x00x00xxx0011001xx0x000xxx %
1'
1#
17
#650130
b11000011 >
0'
0#
07
#651797
z0
b1000000xxx00xz001xx0x000xxx %
1'
1#
17
#653464
b11000100 >
0'
0#
07
#655131
1.
10
z*
b10001xz0x000xx00x1001xx0x000xxx %
1'
1#
17
#656798
b11000101 >
0'
0#
07
#658465
1*
b100xxx10x00x0x00x1001xx0x000xxx %
1'
1#
17
#660132
b11000110 >
0'
0#
07
#661799
0*
z,
bz1000xx00x000x000x1001xx0x000xxx %
1'
1#
17
#663466
b11000111 >
0'
0#
07
#665133
z.
0,
b0zx00xx00x00x0x00x10011x0x000xxx %
1'
1#
17
#666800
b11001000 >
0'
0#
07
#668467
0*
1.
b100xxx00x00xx000x1001x00x000xxx %
1'
1#
17
#670134
b11001001 >
0'
0#
07
#671801
b100xxx00x00xxx00x1001xx0x000xxx %
1'
1#
17
#673468
b11001010 >
0'
0#
07
#675135
0,
b1000xx00000xxx00x1001xx0x000xxx %
1'
1#
17
#676802
b11001011 >
0'
0#
07
#678469
1,
b110xx1x00x00xxx00x1001xx0x000xxx %
1'
1#
17
#680136
b11001100 >
1A
0'
0#
07
#681803
0,
b10xxx000x00xxx00x1001xx0x000xxx %
1'
1#
17
#683470
b11001101 >
0A
0'
0#
07
#685137
0.
z*
b0xx0z0x000xx0011001xx0x000xxx %
1'
1#
17
#686804
b11001110 >
0'
0#
07
#688471
0,
z0
0*
b0x000x00x0x00xz001xx0x000xxx %
1'
1#
17
#690138
b11001111 >
0'
0#
07
#691805
10
b0x000x00xx000x1001xx0x000xxx %
1'
1#
17
#693472
b11010000 >
0'
0#
07
#695139
0.
z,
bz0000x000x00xxx00x1001xx0x000xxx %
1'
1#
17
#696806
b11010001 >
0'
0#
07
#698473
1*
z.
0,
b0z000x010x00xxx00x1001xx0x000xxx %
1'
1#
17
#700140
b11010010 >
0'
0#
07
#701807
0*
0.
b0x000x00xxx00x10011x0x000xxx %
1'
1#
17
#703474
b11010011 >
0'
0#
07
#705141
b0x000x00xxx00x1001x00x000xxx %
1'
1#
17
#706808
b11010100 >
0'
0#
07
#708475
1.
b1000x000x00xxx00x1001xx0x000xxx %
1'
1#
17
#710142
b11010101 >
0'
0#
07
#711809
b10001000000xxx00x1001xx0x000xxx %
1'
1#
17
#713476
b11010110 >
0'
0#
07
#715143
0,
b1x00x000x00xxx00x1001xx0x000xxx %
1'
1#
17
#716810
b11010111 >
1A
0'
0#
07
#718477
z*
b1000x0z0x00xxx00x1001xx0x000xxx %
1'
1#
17
#720144
b11011000 >
0A
0'
0#
07
#721811
0*
b1000x000x000xx0011001xx0x000xxx %
1'
1#
17
#723478
b11011001 >
0'
0#
07
#725145
1.
z0
b10001000x00x0x00xz001xx0x000xxx %
1'
1#
17
#726812
b11011010 >
0'
0#
07
#728479
0.
1*
10
z,
bz0x00xx10x00xx000x1001xx0x000xxx %
1'
1#
17
#730146
b11011011 >
0'
0#
07
#731813
z.
0,
b0zx00x010x00xxx00x1001xx0x000xxx %
1'
1#
17
#733480
b11011100 >
1A
0'
0#
07
#735147
1.
z,
bz10x01010x00xxx00x1001xx0x000xxx %
1'
1#
17
#736814
b11011101 >
0A
0'
0#
07
#738481
z.
1,
b1zx001010x00xxx00110011x0x000xxx %
1'
1#
17
#740148
b11011110 >
0'
0#
07
#741815
0,
z0
1.
b10001010x00xxx00xz001x00x000xxx %
1'
1#
17
#743482
b11011111 >
0'
0#
07
#745149
10
b10001x10x00xxx00x1001xx0x000xxx %
1'
1#
17
#746816
b11100000 >
0'
0#
07
#748483
1*
b10001010000xxx00x1001xx0x000xxx %
1'
1#
17
#750150
b11100001 >
0'
0#
07
#751817
z*
b100010z0x00xxx00x1001xx0x000xxx %
1'
1#
17
#753484
b11100010 >
0'
0#
07
#755151
0*
b100x1000x00xxx00x10011x0x000xxx %
1'
1#
17
#756818
b11100011 >
0'
0#
07
#758485
0.
z*
b0x10z0x000xx00x1001x00x000xxx %
1'
1#
17
#760152
b11100100 >
0'
0#
07
#761819
1*
b1010x00x0x00x1001xx0x000xxx %
1'
1#
17
#763486
b11100101 >
0'
0#
07
#765153
0*
b1000000xx000x1001xx0x000xxx %
1'
1#
17
#766820
b11100110 >
0'
0#
07
#768487
1.
b1000x000x00xxx00x1001xx0x000xxx %
1'
1#
17
#770154
b11100111 >
0'
0#
07
#771821
1'
1#
17
#773488
b11101000 >
1A
0'
0#
07
#775155
1,
1*
b11000x010x000xx00x1001xx0x000xxx %
1'
1#
17
#776822
b11101001 >
0A
0'
0#
07
#778489
z,
bz1000x010x00x0x0011001xx0x000xxx %
1'
1#
17
#780156
b11101010 >
1A
0'
0#
07
#781823
z0
z.
1,
b1z000x010x00xx000xz001xx0x000xxx %
1'
1#
17
#783490
b11101011 >
0A
0'
0#
07
#785157
0,
10
0.
b0xxx10x00xxx0011001xx0x000xxx %
1'
1#
17
#786824
b11101100 >
0'
0#
07
#788491
0.
z0
b0x00x010x00xxx00xz001xx0x000xxx %
1'
1#
17
#790158
b11101101 >
0'
0#
07
#791825
1,
10
b10x00x010x00xxx00x1001xx0x000xxx %
1'
1#
17
#793492
b11101110 >
0'
0#
07
#795159
z,
bz0x001010x00xxx00x10011x0x000xxx %
1'
1#
17
#796826
b11101111 >
0'
0#
07
#798493
z.
1,
b1zx00x010x00xxx00x1001x00x000xxx %
1'
1#
17
#800160
b11110000 >
0'
0#
07
#801827
0.
z*
b10000x0z0x00xxx00x10011x0x000xxx %
1'
1#
17
#803494
b11110001 >
0'
0#
07
#805161
0*
b10x00x000000xxx00x1001x00x000xxx %
1'
1#
17
#806828
b11110010 >
0'
0#
07
#808495
b10000x000x00xxx00x1001xx0x000xxx %
1'
1#
17
#810162
b11110011 >
0'
0#
07
#811829
1.
b110001000000xxx00x1001xx0x000xxx %
1'
1#
17
